ANO habitat-species networks
…
#We also have one registration of C. bigelowii without any cover, which should be removed
ANO.fjell <- ANO.fjell %>% 
  filter(!is.na(art_dekning))

#Check if there are any duplicates in the data (i.e. same species registered twice per plot)
ANO.fjell %>%
  distinct() %>%
  group_by(ano_punkt_id, Species) %>%
  count() %>% 
  arrange(desc(n)) #Duplicates found!! both duplicated species registration within the same ano_punkt, and duplicated flate_id

# A tibble: 20,064 × 3
# Groups:   ano_punkt_id, Species [20,064]
   ano_punkt_id Species                         n
   <chr>        <chr>                       <int>
 1 ANO0055_53   Juncus trifidus                 2
 2 ANO0064_22   Carex bigelowii                 2
 3 ANO0064_22   Luzula arcuata                  2
 4 ANO0064_33   Carex lachenalii                2
 5 ANO0064_33   Carex rariflora                 2
 6 ANO0076_11   Avenella flexuosa               2
 7 ANO0076_11   Betula nana                     2
 8 ANO0076_11   Calamagrostis phragmitoides     2
 9 ANO0076_11   Chamaepericlymenum suecicum     2
10 ANO0076_11   Empetrum nigrum                 2
# ℹ 20,054 more rows
…
#Filter the data by the list
ANO.fjell <- ANO.fjell %>% 
  filter(!ano_punkt_id %in% duplicate_list[["ano_punkt_id"]])

# Calculates the most frequently recorded nature type
ANO.fjell %>% 
  count(kartleggingsenhet_1m2) %>% 
  arrange(desc(n))#T3-C-2 (kalkfattig fjell-lynghei) is by far the most common nature type recorded

# A tibble: 2,315 × 3
# Groups:   ano_punkt_id [2,315]
   ano_punkt_id kartleggingsenhet_1m2     n
   <chr>        <chr>                 <int>
 1 ANO1210_15   T7-C-3                   36
 2 ANO0654_66   T7-C-6                   33
 3 ANO0225_64   T3-C-7                   32
 4 ANO1503_66   V1-C-7                   32
 5 ANO0995_44   T3-C-14                  31
 6 ANO0081_31   T3-C-8                   30
 7 ANO0414_55   V1-C-4                   30
 8 ANO0416_33   T7-C-6                   29
 9 ANO0416_42   T7-C-6                   29
10 ANO1503_51   T32-C-5                  29
# ℹ 2,305 more rows
…
Show the code

# Calculate average number of species per NiN nature type
sr %>% 
  group_by(nature_type) %>% 
  summarise(mean_sr = mean(species_richness, na.rm=TRUE)) %>% 
  arrange(desc(mean_sr))#orders to view the most species rich nature type first

# A tibble: 107 × 2
   nature_type mean_sr
   <chr>         <dbl>
 1 T18            27  
 2 T32-C-5        27  
 3 T16-C-3        21  
 4 V6-C-2         21  
 5 T7-C-6         20.7
 6 T20-C-2        20  
 7 T22-C-3        19.6
 8 T18-C-1        19  
 9 T3-C-11        19  
10 T3-C-14        19  
# ℹ 97 more rows
…
Adding missing grouping variables: `ano_punkt_id`

Show the code

#Calculate community weighted value for cold requirement per ANOplot
ANO.fjell %>% 
  group_by(ano_punkt_id) %>% 
  summarise(cwm_cold_requirement = weighted.mean(Cold_requirement, rel_dekning, na.rm = TRUE))

# A tibble: 2,315 × 2
   ano_punkt_id cwm_cold_requirement
   <chr>                       <dbl>
 1 ANO0010_13                   8.48
 2 ANO0010_15                  12.2 
 3 ANO0010_26                   7.52
 4 ANO0010_33                   4.59
 5 ANO0010_35                  11.2 
 6 ANO0010_44                   7.29
 7 ANO0010_46                   4.69
 8 ANO0010_53                   3.92
 9 ANO0010_62                   3.74
10 ANO0010_64                   4.68
# ℹ 2,305 more rows
…
#This gives the exact same result:
ANO.fjell %>% 
  group_by(ano_punkt_id, kartleggingsenhet_1m2) %>% 
  summarise(cwm_cold_requirement = weighted.mean(Cold_requirement, rel_dekning, na.rm = TRUE)) %>% 
  group_by(kartleggingsenhet_1m2) %>% 
  summarise(mean_cwm_cold_requirement = mean(cwm_cold_requirement, na.rm = TRUE)) %>% arrange(desc(mean_cwm_cold_requirement))

`summarise()` has grouped output by 'ano_punkt_id'. You can override using the
`.groups` argument.

# A tibble: 107 × 2
   kartleggingsenhet_1m2 mean_cwm_cold_requirement
   <chr>                                     <dbl>
 1 T27-C-7                                    16.1
 2 T13-C-3                                    16  
 3 T26-C-2                                    15.3
 4 T7-C-13                                    15.2
 5 V6-C-2                                     15.0
 6 V4-C-4                                     14.9
 7 T26-C-1                                    14.8
 8 T7-C-8                                     14.5
 9 T7-C-4                                     14.5
10 V6-C-4                                     14.4
# ℹ 97 more rows
…
